<?xml version="1.0" encoding="UTF-8" standalone="no"?>
<!DOCTYPE svg PUBLIC "-//W3C//DTD SVG 1.1//EN" "http://www.w3.org/Graphics/SVG/1.1/DTD/svg11.dtd">
<svg width="100%" height="100%" viewBox="0 0 664 724" version="1.1" xmlns="http://www.w3.org/2000/svg" xmlns:xlink="http://www.w3.org/1999/xlink" xml:space="preserve" xmlns:serif="http://www.serif.com/" style="fill-rule:evenodd;clip-rule:evenodd;stroke-linecap:round;stroke-linejoin:round;stroke-miterlimit:1.5;">
    <g transform="matrix(1,0,0,1,-376.911,-223.891)">
        <circle cx="708.661" cy="708.661" r="236.22" style="fill:white;stroke:black;stroke-width:4.17px;"/>
        <g transform="matrix(0.5,2.46519e-32,-2.46519e-32,-0.5,289.37,460.63)">
            <path d="M838.583,236.22L897.638,354.331L779.528,354.331L838.583,236.22Z" style="fill:rgb(128,128,128);"/>
        </g>
        <g transform="matrix(1,0,0,1,212.598,-850.394)">
            <text x="396.014px" y="1098.55px" style="font-family:'ArialMT', 'Arial', sans-serif;font-size:33.333px;fill:rgb(128,128,128);">Front of robot</text>
        </g>
        <g transform="matrix(1,0,0,1,-259.843,0)">
            <circle cx="968.504" cy="496.063" r="23.622" style="fill:rgb(0,0,255);stroke:black;stroke-width:2.08px;"/>
        </g>
        <g transform="matrix(1,0,0,1,-472.441,212.598)">
            <circle cx="968.504" cy="496.063" r="23.622" style="fill:rgb(0,0,255);stroke:black;stroke-width:2.08px;"/>
        </g>
        <g transform="matrix(1,0,0,1,-47.2441,212.598)">
            <circle cx="968.504" cy="496.063" r="23.622" style="fill:rgb(0,0,255);stroke:black;stroke-width:2.08px;"/>
        </g>
        <path d="M377.953,708.661L1039.37,708.661" style="fill:none;stroke:rgb(128,128,128);stroke-width:2.08px;"/>
        <g transform="matrix(1,-0,-0,1,376.911,223.891)">
            <path d="M325.5,484.77C325.5,488.22 328.301,491.02 331.75,491.02C335.2,491.02 338,488.22 338,484.77C338,481.321 335.2,478.52 331.75,478.52C328.301,478.52 325.5,481.321 325.5,484.77Z" style="fill:rgb(128,128,128);"/>
            <path d="M331.75,484.77L331.75,154.061" style="fill:none;stroke:rgb(128,128,128);stroke-width:2.08px;"/>
        </g>
        <g transform="matrix(1,0,0,1,-350.792,12.3633)">
            <text x="1082.8px" y="430.741px" style="font-family:'ArialMT', 'Arial', sans-serif;font-size:50px;">0°</text>
        </g>
        <g transform="matrix(1,0,0,1,-114.572,248.584)">
            <text x="1068.89px" y="430.741px" style="font-family:'ArialMT', 'Arial', sans-serif;font-size:50px;">90°</text>
        </g>
        <g transform="matrix(1,0,0,1,-681.501,248.584)">
            <text x="1060.57px" y="430.741px" style="font-family:'ArialMT', 'Arial', sans-serif;font-size:50px;">-90°</text>
        </g>
    </g>
</svg>
